20

10
8
2
-1
3
-1
5
-1
3
1
3
3
8
-1
1
3
-1
10
6
5
-1
1

9
-1
2
-1
8
10
6
-1
2
1
3
2
8
-1
7
-1
5

1
10
4
-1
1
10
-1

1
2
7
6
3
-1
5
1
9
5
9
7
-1
9
1
2
-1
3
6
6
-1
8
2
-1

4
-1
4
5
10
-1
6
2
-1
8
2
6
-1
6
-1
6
-1
9
-1
2
-1
5
-1
9
9
-1

6

9
7
8
-1
9
5
6
-1
9
1
5
-1
3
-1
8

5
7
-1
1
-1
8
10
1
-1

3
10
5
-1
8
1
1
-1
1
-1
9
2
-1

10
-1
10
-1
5
4
-1
6
7
-1
6
-1
2
5
-1
4

3
8

3
2
1

2
10
-1
3
-1
5
4
-1
4
6
-1
5

10
7
3
8
7
9
10
1
-1
4
5
-1
1

7
5
2
-1
9

10

7
7
9
-1
2
7
-1
7
1
9
-1
4
-1
10
-1
8
2
4
10

2
2
-1

7
-1
9
-1

1
8
7
-1
