21

6
4
-1
-1
8
1
-2
-1
5
-1
5

6
-1
5
-1
3
12
5
-3
32
-1
50

69
-1
47
57
-2
-1
78
33
-2
-1
102

12
8
1
11
3
3
37
-1
7
5

1
2
4
-1
-1
3
1
-1
-1
7
-2
-1
4

6
6
-1
-1
4
-1
6
4
-1
8

9
-1
9
-1
7
-1
1
5
-2
-1

2
7
-2
-1
5
-1
6
-1
8
-1

3
8
-1
-1
10
3
-2
-1
9
6

1
9
1
8
-1
5
-3
1
-1
3
-3
-1

6
-1
8
5
6
6
-2
7
-1
-2

4
7
1
-2
5
1
12
-2
8
-3
-2

5
8
-2
-1
3
9
3
-1
1
2

3
-1
4
2
-2
6
-2
-1
12
-1

11
11
9
9
-2
6
-1
8
7
-2
-1

1
-1
9
-1
4
8
-2
-1
5
4

6
-1
4
1
-2
3
5
-2
-2
5

12
-1
7
-1
22
-1
5
-1
8
4
-1

8
6
-2
8
1
-2
6
15
-4
3

4
5
2
-2
-2
-1
6
6
1
3

2
-1
9
3
-2
5
3
-3
-1
2
-1
