24

100
-1

1
2
3
4
5
6
7
8
9
10
-8
-8

2
4
-1
4
-1
8
9
10
-1

124
-1
124

3
2
1
4
3
2
-3
-4
2
10
-5

64
10
-1
8
9
-2

92
10

47
23
17
4
-3
-3

14
50
9
-2
50
-1
-2
6

1
1
1
1
1
1
1
1
1
1
1
1
1
-4
-4
-4
4

92
10

14
82
-1
-1
3

17
56
17
-2
14

67
17
-1
4
8
12
16
-4
-1

124
-1
123
-1
122
-1
121
-1
120

14
9
2
1
1
1
1
1
1
-2
-3
-4
9
28
3

56
49
-1
-1
2
4
6
18
63
-2

45
54
-2
3
4
5
6
19
22
-7
29

3
71
-2
37
1

42
56
-1
2
6
9
18
22
-4
-2

19
72
3
-1
14

19
72
3
-2
14
-1
45

69
14
2
-3
18
1
4
5
-3
-2

14
56
17
-2
-1
71
