25

6
4
-1
-1
4
-1
6
1

1
8
-2
5
9
5
-2
10

7
1
3
-3
3
1
-4
-3
-1

7
-1
1
2
-1
6
-2
-1

3
-1
9
-1
10
-1
9
-1

4
3
-2
-1
3
4
6
-3

4
-1
5
4
-1
-1
4
2
8

10
4
2
1
6
-2
-1
-2

3
-1
2
-1
1
7
8
6

1
-1
1
2
3
10
1
-4
-4
3

9
-1
4
-1
2
9
8
-3

4
-1
4
-1
8
-1
8
10

5
2
6
4
-3
-2
10
-2
3
-1
-1

8
3
-2
9
5
-1
-2
-1
7

5
-1
10
-1
2
-1
9
6

10
-1
7
8
-2
6
9
1
7

2
-1
1
1
-2
6
9
-2

10
-1
10
10
-2
-1
3
3

3
-1
10
-1
7
-1
2
-1
7

2
-1
9
4
-1
-1
6
-1
6

9
9
-1
-1
1
-1
6
-1

10
9
-2
-1
2
5
10
7
10

2
-1
4
-1
3
3
3
7

9
7
8
3
4
-4
-1
2

9
-1
1
-1
2
-1
5
-1
