-48 -8 920
-8 40 -72 -40 -80 712
56 -8 912
992
992
-24 -32 920
-32 -16 -64 856
120 -16 8 -48 768
-8 -56 -64 -48 784
-8 -16 -24 -24 888
-16 -72 888
-64 -80 832
160 -80 736
-56 928
-72 -48 856
-56 -48 -72 -8 -56 712
-8 48 -72 840
-24 -24 928
-56 928
-48 936
992
-16 -40 -80 -56 -80 680
-24 -24 -24 -56 832
-16 48 -56 -64 24 -32 704
992
